<svg width="26" height="26" viewBox="0 0 26 26" fill="none" xmlns="http://www.w3.org/2000/svg">
<path fill-rule="evenodd" clip-rule="evenodd" d="M0.968864 11.0581C0.552465 11.7028 0.266653 12.211 0.114371 12.5155C-0.0381235 12.8205 -0.0381235 13.1795 0.114371 13.4845C0.266653 13.789 0.552465 14.2972 0.968864 14.9419C1.65804 16.009 2.47122 17.0755 3.40758 18.0743C6.13308 20.9815 9.33855 22.75 13 22.75C16.6615 22.75 19.8669 20.9815 22.5924 18.0743C23.5288 17.0755 24.342 16.009 25.0311 14.9419C25.4475 14.2972 25.7333 13.789 25.8856 13.4845C26.0381 13.1795 26.0381 12.8205 25.8856 12.5155C25.7333 12.211 25.4475 11.7028 25.0311 11.0581C24.342 9.99098 23.5288 8.92452 22.5924 7.92573C19.8669 5.01853 16.6615 3.25 13 3.25C9.33855 3.25 6.13308 5.01853 3.40758 7.92573C2.47122 8.92452 1.65804 9.99098 0.968864 11.0581ZM4.98825 16.5924C4.14727 15.6954 3.41162 14.7306 2.78895 13.7664C2.61222 13.4928 2.45547 13.2358 2.3191 13C2.45547 12.7642 2.61222 12.5072 2.78895 12.2336C3.41162 11.2694 4.14727 10.3046 4.98825 9.4076C7.34088 6.89813 10.026 5.41667 13 5.41667C15.974 5.41667 18.6591 6.89813 21.0118 9.4076C21.8527 10.3046 22.5884 11.2694 23.2111 12.2336C23.3878 12.5072 23.5445 12.7642 23.6809 13C23.5445 13.2358 23.3878 13.4928 23.2111 13.7664C22.5884 14.7306 21.8527 15.6954 21.0118 16.5924C18.6591 19.1019 15.974 20.5833 13 20.5833C10.026 20.5833 7.34088 19.1019 4.98825 16.5924ZM13 17.3333C10.6068 17.3333 8.66667 15.3932 8.66667 13C8.66667 10.6068 10.6068 8.66667 13 8.66667C15.3932 8.66667 17.3333 10.6068 17.3333 13C17.3333 15.3932 15.3932 17.3333 13 17.3333ZM15.1667 13C15.1667 14.1966 14.1966 15.1667 13 15.1667C11.8034 15.1667 10.8333 14.1966 10.8333 13C10.8333 11.8034 11.8034 10.8333 13 10.8333C14.1966 10.8333 15.1667 11.8034 15.1667 13Z" fill="black"/>
<mask id="mask0_0_3556" style="mask-type:alpha" maskUnits="userSpaceOnUse" x="0" y="3" width="26" height="20">
<path fill-rule="evenodd" clip-rule="evenodd" d="M0.968864 11.0581C0.552465 11.7028 0.266653 12.211 0.114371 12.5155C-0.0381235 12.8205 -0.0381235 13.1795 0.114371 13.4845C0.266653 13.789 0.552465 14.2972 0.968864 14.9419C1.65804 16.009 2.47122 17.0755 3.40758 18.0743C6.13308 20.9815 9.33855 22.75 13 22.75C16.6615 22.75 19.8669 20.9815 22.5924 18.0743C23.5288 17.0755 24.342 16.009 25.0311 14.9419C25.4475 14.2972 25.7333 13.789 25.8856 13.4845C26.0381 13.1795 26.0381 12.8205 25.8856 12.5155C25.7333 12.211 25.4475 11.7028 25.0311 11.0581C24.342 9.99098 23.5288 8.92452 22.5924 7.92573C19.8669 5.01853 16.6615 3.25 13 3.25C9.33855 3.25 6.13308 5.01853 3.40758 7.92573C2.47122 8.92452 1.65804 9.99098 0.968864 11.0581ZM4.98825 16.5924C4.14727 15.6954 3.41162 14.7306 2.78895 13.7664C2.61222 13.4928 2.45547 13.2358 2.3191 13C2.45547 12.7642 2.61222 12.5072 2.78895 12.2336C3.41162 11.2694 4.14727 10.3046 4.98825 9.4076C7.34088 6.89813 10.026 5.41667 13 5.41667C15.974 5.41667 18.6591 6.89813 21.0118 9.4076C21.8527 10.3046 22.5884 11.2694 23.2111 12.2336C23.3878 12.5072 23.5445 12.7642 23.6809 13C23.5445 13.2358 23.3878 13.4928 23.2111 13.7664C22.5884 14.7306 21.8527 15.6954 21.0118 16.5924C18.6591 19.1019 15.974 20.5833 13 20.5833C10.026 20.5833 7.34088 19.1019 4.98825 16.5924ZM13 17.3333C10.6068 17.3333 8.66667 15.3932 8.66667 13C8.66667 10.6068 10.6068 8.66667 13 8.66667C15.3932 8.66667 17.3333 10.6068 17.3333 13C17.3333 15.3932 15.3932 17.3333 13 17.3333ZM15.1667 13C15.1667 14.1966 14.1966 15.1667 13 15.1667C11.8034 15.1667 10.8333 14.1966 10.8333 13C10.8333 11.8034 11.8034 10.8333 13 10.8333C14.1966 10.8333 15.1667 11.8034 15.1667 13Z" fill="white"/>
</mask>
<g mask="url(#mask0_0_3556)">
<rect width="26" height="26" fill="#E94E1B"/>
</g>
</svg>
