<svg width="24" height="25" viewBox="0 0 24 25" fill="none" xmlns="http://www.w3.org/2000/svg">
<path fill-rule="evenodd" clip-rule="evenodd" d="M13.6172 11.9153C13.502 11.8676 13.3938 11.7975 13.2995 11.7048L13.2864 11.6918C13.1099 11.512 13.0008 11.2658 13 10.9942L13 10.9912V10.9905V4.99121C13 4.43893 13.4477 3.99121 14 3.99121C14.5523 3.99121 15 4.43893 15 4.99121V8.577L20.2929 3.2841C20.6834 2.89358 21.3166 2.89358 21.7071 3.2841C22.0976 3.67463 22.0976 4.30779 21.7071 4.69832L16.4142 9.99121H20C20.5523 9.99121 21 10.4389 21 10.9912C21 11.5435 20.5523 11.9912 20 11.9912H14C13.8644 11.9912 13.7351 11.9642 13.6172 11.9153ZM7.58579 15.9912L2.29289 21.2841C1.90237 21.6746 1.90237 22.3078 2.29289 22.6983C2.68342 23.0888 3.31658 23.0888 3.70711 22.6983L9 17.4054V20.9912C9 21.5435 9.44772 21.9912 10 21.9912C10.5523 21.9912 11 21.5435 11 20.9912V14.9912C11 14.8556 10.973 14.7263 10.9241 14.6084C10.8764 14.4932 10.8063 14.385 10.7136 14.2907C10.7093 14.2863 10.7049 14.2819 10.7005 14.2776C10.5208 14.1011 10.2746 13.992 10.003 13.9912C10.002 13.9912 10.001 13.9912 10 13.9912H9.99931H4C3.44772 13.9912 3 14.4389 3 14.9912C3 15.5435 3.44772 15.9912 4 15.9912H7.58579Z" fill="black"/>
<mask id="mask0_0_9921" style="mask-type:alpha" maskUnits="userSpaceOnUse" x="2" y="2" width="20" height="21">
<path fill-rule="evenodd" clip-rule="evenodd" d="M13.6172 11.9153C13.502 11.8676 13.3938 11.7975 13.2995 11.7048L13.2864 11.6918C13.1099 11.512 13.0008 11.2658 13 10.9942L13 10.9912V10.9905V4.99121C13 4.43893 13.4477 3.99121 14 3.99121C14.5523 3.99121 15 4.43893 15 4.99121V8.577L20.2929 3.2841C20.6834 2.89358 21.3166 2.89358 21.7071 3.2841C22.0976 3.67463 22.0976 4.30779 21.7071 4.69832L16.4142 9.99121H20C20.5523 9.99121 21 10.4389 21 10.9912C21 11.5435 20.5523 11.9912 20 11.9912H14C13.8644 11.9912 13.7351 11.9642 13.6172 11.9153ZM7.58579 15.9912L2.29289 21.2841C1.90237 21.6746 1.90237 22.3078 2.29289 22.6983C2.68342 23.0888 3.31658 23.0888 3.70711 22.6983L9 17.4054V20.9912C9 21.5435 9.44772 21.9912 10 21.9912C10.5523 21.9912 11 21.5435 11 20.9912V14.9912C11 14.8556 10.973 14.7263 10.9241 14.6084C10.8764 14.4932 10.8063 14.385 10.7136 14.2907C10.7093 14.2863 10.7049 14.2819 10.7005 14.2776C10.5208 14.1011 10.2746 13.992 10.003 13.9912C10.002 13.9912 10.001 13.9912 10 13.9912H9.99931H4C3.44772 13.9912 3 14.4389 3 14.9912C3 15.5435 3.44772 15.9912 4 15.9912H7.58579Z" fill="white"/>
</mask>
<g mask="url(#mask0_0_9921)">
<rect y="0.991211" width="24" height="24" fill="#3C3C3B"/>
</g>
</svg>
