<svg width="113" height="112" viewBox="0 0 113 112" fill="none" xmlns="http://www.w3.org/2000/svg">
<path d="M0.500488 0H102.5C108.023 0 112.5 4.47715 112.5 10V102C112.5 107.523 108.023 112 102.5 112H0.500488V0Z" fill="#D8D8D8"/>
<mask id="mask0_0_5494" style="mask-type:alpha" maskUnits="userSpaceOnUse" x="0" y="0" width="113" height="112">
<path d="M0.500488 0H102.5C108.023 0 112.5 4.47715 112.5 10V102C112.5 107.523 108.023 112 102.5 112H0.500488V0Z" fill="white"/>
</mask>
<g mask="url(#mask0_0_5494)">
<path fill-rule="evenodd" clip-rule="evenodd" d="M-9.06569 -40.1897L-9.06569 223.637L197.544 223.637L197.544 -40.1897L-9.06569 -40.1897Z" fill="#F0F1F6"/>
<path d="M111.783 20.4034L136.936 33.7064L145.149 37.2589L166.088 38.7176" stroke="white" stroke-linecap="round" stroke-linejoin="round"/>
<path d="M107.838 33.2797L118.347 23.8744" stroke="white" stroke-linecap="round" stroke-linejoin="round"/>
<path d="M157.357 81.5345L138.247 71.8273L128.922 113.905L115.234 155.657L102.681 150.228L95.3273 150.948L83.3113 141.239L67.3496 142.317L64.8386 138.361L67.3496 128.159" stroke="white" stroke-linecap="round" stroke-linejoin="round"/>
<path d="M104.295 136.203L115.234 155.657L91.0226 163.895L80.5628 162.995L64.1212 155.657L62.6864 141.094L58.7407 138.721L63.0449 128.16H74.5237L80.5628 126.288L84.2274 109.41L108.778 110.129L128.922 113.905" stroke="white" stroke-linecap="round" stroke-linejoin="round"/>
<path d="M127.501 96.2776L115.234 92.3375L108.779 110.129L107.838 127.392L103.398 137.822L102.68 150.229" stroke="white" stroke-linecap="round" stroke-linejoin="round"/>
<path d="M120.008 141.095L110.392 136.203L116 111.483" stroke="white" stroke-linecap="round" stroke-linejoin="round"/>
<path d="M111.783 102.757L122.032 104.249" stroke="white" stroke-linecap="round" stroke-linejoin="round"/>
<path d="M93.8315 130.073L98.3796 109.825L107.838 91.2486L87.9741 82.4373L79.5454 93.9455" stroke="white" stroke-linecap="round" stroke-linejoin="round"/>
<path d="M85.2842 92.3374L83.3113 106.255L76.212 100.957L69.1427 106.255" stroke="white" stroke-linecap="round" stroke-linejoin="round"/>
<path d="M70.3978 111.483L68.0665 117.682L74.702 122.896L84.2271 109.409L83.3104 106.255" stroke="white" stroke-linecap="round" stroke-linejoin="round"/>
<path d="M113.778 89.6301L126.827 86.5729L126.094 79.5836L122.202 77.7384L115.2 62.4764L105.728 61.2181L100.169 67.1524L96.5418 80.6386" stroke="white" stroke-linecap="round" stroke-linejoin="round"/>
<path d="M109.136 87.2924L111.097 79.0206L110.117 71.828L111.097 61.9325" stroke="white" stroke-linecap="round" stroke-linejoin="round"/>
<path d="M107.838 61.4986L104.295 52.2273L93.6914 48.8107L82.4144 41.9774L72.9084 42.8774L61.9688 54.0252" stroke="white" stroke-linecap="round" stroke-linejoin="round"/>
<path d="M91.4751 36.224L84.2272 43.0763L77.2132 61.2184L68.0666 70.8803L46.9032 118.401L44.9313 122.897L19.4636 132.913L2.16655 133.652L-34.5701 146.234" stroke="white" stroke-linecap="round" stroke-linejoin="round"/>
<path d="M75.1626 28.5777L54.2571 68.5905L43.1377 87.2922L24.8447 109.41H-4.8157L-26.6167 117.429" stroke="white" stroke-linecap="round" stroke-linejoin="round"/>
<path d="M60.7139 28.5777L42.7793 57.9047" stroke="white" stroke-linecap="round" stroke-linejoin="round"/>
<path d="M68.0669 42.1587L50.311 31.7287L44.0339 40.7877" stroke="white" stroke-linecap="round" stroke-linejoin="round"/>
<path d="M61.9687 54.0254L25.1447 28.578L33.1376 42.3239" stroke="white" stroke-linecap="round" stroke-linejoin="round"/>
<path d="M16.417 48.6322L40.8335 39.4202" stroke="white" stroke-linecap="round" stroke-linejoin="round"/>
<path d="M54.1641 48.6322L32.7355 83.8754L27.8932 82.4369L21.4926 98.4408" stroke="white" stroke-linecap="round" stroke-linejoin="round"/>
<path d="M30.3472 102.757L0.755026 87.9289" stroke="white" stroke-linecap="round" stroke-linejoin="round"/>
<path d="M46.8213 81.097L7.92902 68.9939" stroke="white" stroke-linecap="round" stroke-linejoin="round"/>
<path d="M25.145 65.1743L11.8379 59.4554" stroke="white" stroke-linecap="round" stroke-linejoin="round"/>
<path d="M31.1026 76.2054L35.1738 65.8941" stroke="white" stroke-linecap="round" stroke-linejoin="round"/>
<path d="M21.4932 82.437L4.48125 76.2058" stroke="white" stroke-linecap="round" stroke-linejoin="round"/>
<path d="M25.145 89.3096L3.68032 81.0973" stroke="white" stroke-linecap="round" stroke-linejoin="round"/>
<path d="M27.3755 57.9046L14.4127 53.3333" stroke="white" stroke-linecap="round" stroke-linejoin="round"/>
<path d="M77.2134 61.2185L60.7135 56.2335" stroke="white" stroke-linecap="round" stroke-linejoin="round"/>
<path d="M68.0669 70.88L56.3812 64.526" stroke="white" stroke-linecap="round" stroke-linejoin="round"/>
<path d="M66.043 75.4238L54.1635 82.4372" stroke="white" stroke-linecap="round" stroke-linejoin="round"/>
<path d="M60.104 88.7611L45.3581 83.5566" stroke="white" stroke-linecap="round" stroke-linejoin="round"/>
<path d="M41.923 88.7611L50.3115 92.3377L47.6218 99.2958" stroke="white" stroke-linecap="round" stroke-linejoin="round"/>
<path d="M33.917 98.4413L41.9229 99.296V117.322L46.9038 118.4" stroke="white" stroke-linecap="round" stroke-linejoin="round"/>
<path d="M35.1733 99.2957L28.6262 129.309" stroke="white" stroke-linecap="round" stroke-linejoin="round"/>
<path d="M22.334 109.409L19.4646 132.913L33.1382 179.54L20.0489 196.513" stroke="white" stroke-linecap="round" stroke-linejoin="round"/>
<path d="M75.1623 63.3841L89.2295 68.9932" stroke="white" stroke-linecap="round" stroke-linejoin="round"/>
<path d="M89.2295 46.1077L81.4555 65.8936L84.2275 73.5362L80.5629 81.0973L68.9636 89.6297" stroke="white" stroke-linecap="round" stroke-linejoin="round"/>
<path d="M50.3112 141.095L69.8603 99.2961L70.9355 92.337L67.3492 87.9289L45.3584 139.08" stroke="white" stroke-linecap="round" stroke-linejoin="round"/>
<path d="M56.0508 10.6223L35.1734 5.56686" stroke="white" stroke-linecap="round" stroke-linejoin="round"/>
<path d="M24.8442 109.409H41.9224" stroke="white" stroke-linecap="round" stroke-linejoin="round"/>
<path d="M33.3833 9.76023L19.4637 0.0922394" stroke="white" stroke-linecap="round" stroke-linejoin="round"/>
<path d="M-6.12962 -21.2251L0.241821 -13.2353L17.7397 3.65854L25.8872 26.8893" stroke="white" stroke-linecap="round" stroke-linejoin="round"/>
<path d="M14.2036 -8.08791L10.4486 -2.86433L-0.939845 19.098" stroke="white" stroke-linecap="round" stroke-linejoin="round"/>
<path fill-rule="evenodd" clip-rule="evenodd" d="M75.1624 23.1206L66.7427 14.6758L103.855 -21.2248C103.855 -21.2248 106.744 -23.2674 110.549 -18.8612C114.353 -14.454 111.098 -11.9011 111.098 -11.9011L75.1624 23.1206Z" stroke="white" stroke-linecap="round" stroke-linejoin="round"/>
<path d="M121.092 7.25242L95.5167 -18.6158" stroke="white" stroke-linecap="round" stroke-linejoin="round"/>
<path d="M58.9902 8.92318L82.1959 -15.1894L99.5431 2.31947C99.5431 2.31947 102.791 6.96522 103.995 10.0245C105.198 13.0847 105.751 17.0006 109.136 16.3896C112.522 15.7775 119.65 5.79447 119.65 5.79447" stroke="white" stroke-linecap="round" stroke-linejoin="round"/>
<path d="M93.6909 -3.58641L75.1619 15.1647L70.4732 11.0676" stroke="white" stroke-linecap="round" stroke-linejoin="round"/>
<path d="M89.5693 9.08042L81.1788 0.712036" stroke="white" stroke-linecap="round" stroke-linejoin="round"/>
<path d="M62.2236 11.2486L85.2837 -11.9006" stroke="white" stroke-linecap="round" stroke-linejoin="round"/>
<path d="M89.3203 -12.5564L104.134 -26.2893L129.707 -11.901L117.714 3.83612L77.4077 20.4038L69.1427 12.3545" stroke="white" stroke-linecap="round" stroke-linejoin="round"/>
<path d="M57.2238 7.25243L72.9707 -8.84813" stroke="white" stroke-linecap="round" stroke-linejoin="round"/>
<path d="M84.2271 17.6002L85.2844 20.8195L93.6909 19.2099" stroke="white" stroke-linecap="round" stroke-linejoin="round"/>
<path d="M195.153 -0.432739L76.212 29.293C76.212 29.293 95.7901 26.7361 107.838 33.2794C119.886 39.8227 161.467 54.8471 161.467 54.8471" stroke="#E4E3EE" stroke-width="4"/>
<path d="M38.747 -7.5423C38.747 -7.5423 68.1795 24.2994 76.2115 29.2935C84.2436 34.2865 122.396 46.3665 123.902 57.9431C125.408 69.5197 131.934 139.986 128.922 148.039C125.91 156.093 105.83 194.849 104.826 204.916C103.822 214.982 105.83 260.786 107.838 273.369" stroke="#E4E3EE" stroke-width="4"/>
<path d="M39.0635 -5.02081C38.5615 2.07314 -8.62692 97.2027 -4.61089 112.806C-0.594852 128.409 28.5214 198.876 30.0274 273.369" stroke="#E4E3EE" stroke-width="4"/>
</g>
</svg>
